Reproducible Research: Peer Assessment 1
…
cleanByDayType <- mutate(cleanByWeekday, daytype = if_else(weekday %in% c("Saturday", 
    "Sunday"), "weekend", "weekday"))
cleanByDayType

## Source: local data frame [17,568 x 5]
## Groups: date [61]
## 
##    steps       date interval weekday daytype
##    <dbl>     <date>    <int>   <chr>   <chr>
## 1      2 2012-10-01        0  Monday weekday
## 2      0 2012-10-01        5  Monday weekday
## 3      0 2012-10-01       10  Monday weekday
## 4      0 2012-10-01       15  Monday weekday
## 5      0 2012-10-01       20  Monday weekday
## 6      2 2012-10-01       25  Monday weekday
## 7      1 2012-10-01       30  Monday weekday
## 8      1 2012-10-01       35  Monday weekday
## 9      0 2012-10-01       40  Monday weekday
## 10     1 2012-10-01       45  Monday weekday
## # ... with 17,558 more rows
…
